<svg width="19" height="27" viewBox="0 0 19 27" fill="none" xmlns="http://www.w3.org/2000/svg">
<path d="M18.655 18.71C18.655 21.2 17.77 23.12 16 24.47C14.26 25.79 11.65 26.45 8.17 26.45C6.46 26.45 4.99 26.33 3.76 26.09C2.53 25.88 1.3 25.52 0.0700002 25.01V19.475C1.39 20.075 2.815 20.57 4.345 20.96C5.875 21.35 7.225 21.545 8.395 21.545C9.715 21.545 10.645 21.35 11.185 20.96C11.755 20.57 12.04 20.06 12.04 19.43C12.04 19.01 11.92 18.635 11.68 18.305C11.47 17.975 10.99 17.6 10.24 17.18C9.49 16.76 8.32 16.22 6.73 15.56C5.2 14.9 3.94 14.255 2.95 13.625C1.96 12.965 1.225 12.185 0.745 11.285C0.265 10.355 0.0250001 9.2 0.0250001 7.82C0.0250001 5.54 0.91 3.83 2.68 2.69C4.45 1.55 6.805 0.979998 9.745 0.979998C11.275 0.979998 12.73 1.13 14.11 1.43C15.49 1.73 16.915 2.225 18.385 2.915L16.36 7.73C15.16 7.22 14.02 6.8 12.94 6.47C11.86 6.11 10.765 5.93 9.655 5.93C7.675 5.93 6.685 6.47 6.685 7.55C6.685 7.94 6.805 8.3 7.045 8.63C7.315 8.93 7.81 9.26 8.53 9.62C9.28 9.98 10.375 10.46 11.815 11.06C13.225 11.63 14.44 12.23 15.46 12.86C16.48 13.46 17.26 14.225 17.8 15.155C18.37 16.055 18.655 17.24 18.655 18.71Z" fill="#507DBC"/>
</svg>
